Chess
…
For each of these separate games from Lichess. I collected this data using the Lichess API, which enables collection of any given users game history. The difficult part was collecting usernames to use, however the API also enables dumping of all users in a Lichess team. There are several teams on Lichess with over 1,500 players, so this proved an effective way to get users to collect games from.

Possible Uses

Lots of information is contained within a single chess game, let alone a full dataset of multiple games. It is primarily a game of patterns, and data science is all about detecting patterns in data, which is why chess has been one of the most invested in areas of AI in the past. This dataset collects all of the information available from 20,000 games and presents it in a format that is easy to process for analysis of, for example, what allows a player to win as black or white, how much meta (out-of-game) factors affect a game, the relationship between openings and victory for black and white and more.

games <- read_csv("games.csv")

#cleaning variables
chess <- games %>% 
  select(rated, turns, victory_status, winner, white_rating, black_rating, moves, opening_eco, opening_name, opening_ply)
chess

# A tibble: 20,058 x 10
   rated turns victory_status winner white_rating black_rating moves opening_eco
   <lgl> <dbl> <chr>          <chr>         <dbl>        <dbl> <chr> <chr>      
 1 FALSE    13 outoftime      white          1500         1191 d4 d~ D10        
 2 TRUE     16 resign         black          1322         1261 d4 N~ B00        
 3 TRUE     61 mate           white          1496         1500 e4 e~ C20        
 4 TRUE     61 mate           white          1439         1454 d4 d~ D02        
 5 TRUE     95 mate           white          1523         1469 e4 e~ C41        
 6 FALSE     5 draw           draw           1250         1002 e4 c~ B27        
 7 TRUE     33 resign         white          1520         1423 d4 d~ D00        
 8 FALSE     9 resign         black          1413         2108 e4 N~ B00        
 9 TRUE     66 resign         black          1439         1392 e4 e~ C50        
10 TRUE    119 mate           white          1381         1209 e4 d~ B01        
# ... with 20,048 more rows, and 2 more variables: opening_name <chr>,
#   opening_ply <dbl>
…
chess

# A tibble: 19,405 x 10
   rated turns victory_status winner white_rating black_rating moves opening_eco
   <lgl> <dbl> <fct>          <fct>         <dbl>        <dbl> <chr> <fct>      
 1 FALSE    13 outoftime      white          1500         1191 d4 d~ D10        
 2 TRUE     16 resign         black          1322         1261 d4 N~ B00        
 3 TRUE     61 mate           white          1496         1500 e4 e~ C20        
 4 TRUE     61 mate           white          1439         1454 d4 d~ D02        
 5 TRUE     95 mate           white          1523         1469 e4 e~ C41        
 6 FALSE     5 draw           draw           1250         1002 e4 c~ B27        
 7 TRUE     33 resign         white          1520         1423 d4 d~ D00        
 8 FALSE     9 resign         black          1413         2108 e4 N~ B00        
 9 TRUE     66 resign         black          1439         1392 e4 e~ C50        
10 TRUE    119 mate           white          1381         1209 e4 d~ B01        
# ... with 19,395 more rows, and 2 more variables: opening_name <chr>,
#   opening_ply <dbl>
…
